-- Merging decision tree log ---
manifest
ADDED from /Users/pcastillo/ISBX/Others/Projects/PaulMessenger/app/src/main/AndroidManifest.xml:2:1-40:12
	package
		ADDED from /Users/pcastillo/ISBX/Others/Projects/PaulMessenger/app/src/main/AndroidManifest.xml:3:5-39
		INJECTED from /Users/pcastillo/ISBX/Others/Projects/PaulMessenger/app/src/main/AndroidManifest.xml
		INJECTED from /Users/pcastillo/ISBX/Others/Projects/PaulMessenger/app/src/main/AndroidManifest.xml
	android:versionName
		ADDED from /Users/pcastillo/ISBX/Others/Projects/PaulMessenger/app/src/main/AndroidManifest.xml:5:5-30
		INJECTED from /Users/pcastillo/ISBX/Others/Projects/PaulMessenger/app/src/main/AndroidManifest.xml
		INJECTED from /Users/pcastillo/ISBX/Others/Projects/PaulMessenger/app/src/main/AndroidManifest.xml
	android:versionCode
		ADDED from /Users/pcastillo/ISBX/Others/Projects/PaulMessenger/app/src/main/AndroidManifest.xml:4:5-28
		INJECTED from /Users/pcastillo/ISBX/Others/Projects/PaulMessenger/app/src/main/AndroidManifest.xml
		INJECTED from /Users/pcastillo/ISBX/Others/Projects/PaulMessenger/app/src/main/AndroidManifest.xml
	xmlns:android
		ADDED from /Users/pcastillo/ISBX/Others/Projects/PaulMessenger/app/src/main/AndroidManifest.xml:2:11-69
uses-sdk
ADDED from /Users/pcastillo/ISBX/Others/Projects/PaulMessenger/app/src/main/AndroidManifest.xml:7:5-9:41
	android:targetSdkVersion
		ADDED from /Users/pcastillo/ISBX/Others/Projects/PaulMessenger/app/src/main/AndroidManifest.xml:9:9-38
		INJECTED from /Users/pcastillo/ISBX/Others/Projects/PaulMessenger/app/src/main/AndroidManifest.xml
		INJECTED from /Users/pcastillo/ISBX/Others/Projects/PaulMessenger/app/src/main/AndroidManifest.xml
	android:minSdkVersion
		ADDED from /Users/pcastillo/ISBX/Others/Projects/PaulMessenger/app/src/main/AndroidManifest.xml:8:9-35
		INJECTED from /Users/pcastillo/ISBX/Others/Projects/PaulMessenger/app/src/main/AndroidManifest.xml
		INJECTED from /Users/pcastillo/ISBX/Others/Projects/PaulMessenger/app/src/main/AndroidManifest.xml
uses-permission#android.permission.SEND_SMS
ADDED from /Users/pcastillo/ISBX/Others/Projects/PaulMessenger/app/src/main/AndroidManifest.xml:11:5-67
	android:name
		ADDED from /Users/pcastillo/ISBX/Others/Projects/PaulMessenger/app/src/main/AndroidManifest.xml:11:22-64
uses-permission#android.permission.CALL_PHONE
ADDED from /Users/pcastillo/ISBX/Others/Projects/PaulMessenger/app/src/main/AndroidManifest.xml:12:5-69
	android:name
		ADDED from /Users/pcastillo/ISBX/Others/Projects/PaulMessenger/app/src/main/AndroidManifest.xml:12:22-66
application
ADDED from /Users/pcastillo/ISBX/Others/Projects/PaulMessenger/app/src/main/AndroidManifest.xml:14:5-38:19
	android:label
		ADDED from /Users/pcastillo/ISBX/Others/Projects/PaulMessenger/app/src/main/AndroidManifest.xml:17:9-41
	android:allowBackup
		ADDED from /Users/pcastillo/ISBX/Others/Projects/PaulMessenger/app/src/main/AndroidManifest.xml:15:9-35
	android:icon
		ADDED from /Users/pcastillo/ISBX/Others/Projects/PaulMessenger/app/src/main/AndroidManifest.xml:16:9-44
	android:theme
		ADDED from /Users/pcastillo/ISBX/Others/Projects/PaulMessenger/app/src/main/AndroidManifest.xml:18:9-40
activity#com.example.smsmessenger.SplashActivity
ADDED from /Users/pcastillo/ISBX/Others/Projects/PaulMessenger/app/src/main/AndroidManifest.xml:19:9-25:20
	android:label
		ADDED from /Users/pcastillo/ISBX/Others/Projects/PaulMessenger/app/src/main/AndroidManifest.xml:19:74-119
	android:name
		ADDED from /Users/pcastillo/ISBX/Others/Projects/PaulMessenger/app/src/main/AndroidManifest.xml:19:19-73
intent-filter#android.intent.action.MAIN+android.intent.category.LAUNCHER
ADDED from /Users/pcastillo/ISBX/Others/Projects/PaulMessenger/app/src/main/AndroidManifest.xml:20:13-24:29
action#android.intent.action.MAIN
ADDED from /Users/pcastillo/ISBX/Others/Projects/PaulMessenger/app/src/main/AndroidManifest.xml:21:17-69
	android:name
		ADDED from /Users/pcastillo/ISBX/Others/Projects/PaulMessenger/app/src/main/AndroidManifest.xml:21:25-66
category#android.intent.category.LAUNCHER
ADDED from /Users/pcastillo/ISBX/Others/Projects/PaulMessenger/app/src/main/AndroidManifest.xml:23:17-77
	android:name
		ADDED from /Users/pcastillo/ISBX/Others/Projects/PaulMessenger/app/src/main/AndroidManifest.xml:23:27-74
activity#com.example.smsmessenger.MainActivity
ADDED from /Users/pcastillo/ISBX/Others/Projects/PaulMessenger/app/src/main/AndroidManifest.xml:25:20-28:20
	android:label
		ADDED from /Users/pcastillo/ISBX/Others/Projects/PaulMessenger/app/src/main/AndroidManifest.xml:27:13-45
	android:name
		ADDED from /Users/pcastillo/ISBX/Others/Projects/PaulMessenger/app/src/main/AndroidManifest.xml:26:13-65
activity#com.example.smsmessenger.SendSMSActivity
ADDED from /Users/pcastillo/ISBX/Others/Projects/PaulMessenger/app/src/main/AndroidManifest.xml:29:9-32:20
	android:label
		ADDED from /Users/pcastillo/ISBX/Others/Projects/PaulMessenger/app/src/main/AndroidManifest.xml:31:13-60
	android:name
		ADDED from /Users/pcastillo/ISBX/Others/Projects/PaulMessenger/app/src/main/AndroidManifest.xml:30:13-68
activity#com.example.smsmessenger.ContactProfileActivity
ADDED from /Users/pcastillo/ISBX/Others/Projects/PaulMessenger/app/src/main/AndroidManifest.xml:33:9-36:20
	android:label
		ADDED from /Users/pcastillo/ISBX/Others/Projects/PaulMessenger/app/src/main/AndroidManifest.xml:35:13-67
	android:name
		ADDED from /Users/pcastillo/ISBX/Others/Projects/PaulMessenger/app/src/main/AndroidManifest.xml:34:13-75
